…
``` r
missing_glimpse(kirc_clean4)
```

    ## Warning: `data_frame()` is deprecated as of tibble 1.1.0.
    ## Please use `tibble()` instead.
    ## This warning is displayed once every 8 hours.
    ## Call `lifecycle::last_warnings()` to see where this warning was generated.

    ## # A tibble: 32 x 5
    ##    label             var_type     n missing_n missing_percent
    ##    <fct>             <chr>    <int>     <int> <chr>          
    ##  1 patient_id        <chr>      537         0 0.0            
    ##  2 age               <dbl>      537         0 0.0            
    ##  3 metastasis_stg    <fct>      535         2 0.4            
    ##  4 neoplasm_ln_stg   <fct>      537         0 0.0            
    ##  5 neoplasm_stg      <fct>      534         3 0.6            
    ##  6 tumor_stg         <fct>      537         0 0.0            
    ##  7 disease_free_mth  <dbl>      438        99 18.4           
    ##  8 disease_free_stt  <fct>      438        99 18.4           
    ##  9 ethnicity         <fct>      385       152 28.3           
    ## 10 frac_genome_alter <dbl>      528         9 1.7            
    ## # … with 22 more rows
…
